HFI Report
…
The data comes from the Cato Institute, the Fraser Institute, and the Liberales Institut at the Friedrich Naumann Foundation for Freedom.

Summary

The country with the highest human freedom idex (HFI) was [New Zealand] and the country with the lowest HFI was [Syria]. As for the average human freedom across different regions, North America ranks the highest, followed by Western Europe, East Asia, Oceania, Eastern Europe, Latin America & the Caribbean, Caucasus & Central Asia, South Asia, Sub-Saharan Africa, while Middle East & North Africa ranks the lowest.

Table

Since the main focus of our data is to quantify human freedom, the overall trend human freedom scores across the countries, region, the correlation between personal freedom and economic freedom, women-specific Personal Freedom Score and its indicator scores, all of which make up the majority part of the data may be of some interest that enable us to understand more about such quantification of human freedom.

First, we want to examine whether there is a trend of human freedom scores by country over time.

trend_overall_countries

## # A tibble: 162 x 11
## # Groups:   countries [162]
##    countries `2017` `2016` `2015` `2014` `2013` `2012` `2011` `2010` `2009`
##    <chr>      <dbl>  <dbl>  <dbl>  <dbl>  <dbl>  <dbl>  <dbl>  <dbl>  <dbl>
##  1 Albania     7.84   7.67   7.58   7.69   7.44   7.44   7.52   7.71   7.74
##  2 Algeria     4.99   5.22   5.04   5.2    5.16   5.06   5.15   5.26   5.28
##  3 Angola      5.4    5.89   5.79   5.44   5.28   5.35   5.37   5.44   5.44
##  4 Argentina   6.86   6.75   6.54   6.27   6.55   6.64   6.93   6.96   7.06
##  5 Armenia     7.42   7.44   7.34   7.43   7.53   7.52   7.53   7.41   7.39
##  6 Australia   8.62   8.62   8.61   8.69   8.56   8.6    8.64   8.69   8.68
##  7 Austria     8.48   8.47   8.56   8.58   8.53   8.49   8.46   8.37   8.4 
##  8 Azerbaij   6.22   6.07   5.97   6.12   6.11   6.07   6.07   6.36   6.29
##  9 Bahamas     7.56   7.6    7.63   7.59   7.6    7.58   7.62   7.65   7.76
## 10 Bahrain     6.63   6.65   6.66   6.62   6.62   6.53   6.69   6.83   7.03
## #  with 152 more rows, and 1 more variable: `2008` <dbl>
…
In terms of the overall human freedom on average across the region in 2017, North America ranks the highest, followed by Western Europe, East Asia, Oceania, Eastern Europe, Latin America & the Caribbean, Caucasus & Central Asia, South Asia, Sub-Saharan Africa, Middle East & North Africa being the lowest.

After looking at the overall human freedom score, we take a look of the personal and economic scores. Here, by creating a new column, we will be able to tell which aspect of scores outweigh the other in each country.

ef_pf

## # A tibble: 1,620 x 6
## # Groups:   countries [162]
##     year countries  region                        pf_score ef_score ef_pf_corr
##    <int> <chr>      <chr>                         <chr>    <chr>         <dbl>
##  1  2017 Albania    Eastern Europe                8.01     7.67          1.04 
##  2  2017 Algeria    Middle East & North Africa    5.2      4.77          1.09 
##  3  2017 Angola     Sub-Saharan Africa            5.98     4.83          1.24 
##  4  2017 Argentina  Latin America & the Caribbean 8.04     5.67          1.42 
##  5  2017 Armenia    Caucasus & Central Asia       7.15     7.7           0.929
##  6  2017 Australia  Oceania                       9.16     8.07          1.14 
##  7  2017 Austria    Western Europe                9.25     7.71          1.20 
##  8  2017 Azerbaijan Caucasus & Central Asia       6.1      6.34          0.962
##  9  2017 Bahamas    Latin America & the Caribbean 7.87     7.25          1.09 
## 10  2017 Bahrain    Middle East & North Africa    5.91     7.35          0.804
## #  with 1,610 more rows
…
